model,scenario
COFFEE 1.1,EN_NPi2020_400
MESSAGEix-GLOBIOM 1.0,LowEnergyDemand_1.3_IPCC
MESSAGEix-GLOBIOM_1.1,NGFS2_Net-Zero 2050
REMIND 2.1,LeastTotalCost_LTC_brkLR15_SSP1_P50
REMIND 2.1,R2p1_SSP1-PkBudg900
REMIND-MAgPIE 2.1-4.2,CEMICS_SSP1-1p5C-fullCDR
REMIND-MAgPIE 2.1-4.2,CEMICS_SSP1-1p5C-minCDR
REMIND-MAgPIE 2.1-4.2,EN_NPi2020_200f
REMIND-MAgPIE 2.1-4.2,EN_NPi2020_300f
REMIND-MAgPIE 2.1-4.2,EN_NPi2020_400
REMIND-MAgPIE 2.1-4.2,EN_NPi2020_400f
REMIND-MAgPIE 2.1-4.2,EN_NPi2020_500
REMIND-MAgPIE 2.1-4.2,NGFS2_Divergent Net Zero Policies
REMIND-MAgPIE 2.1-4.2,NGFS2_Net-Zero 2050
REMIND-MAgPIE 2.1-4.2,NGFS2_Net-Zero 2050 - IPD-95th
REMIND-MAgPIE 2.1-4.2,NGFS2_Net-Zero 2050 - IPD-median
REMIND-MAgPIE 2.1-4.2,SusDev_SDP-PkBudg1000
REMIND-MAgPIE 2.1-4.2,SusDev_SSP1-PkBudg900
REMIND-MAgPIE 2.1-4.3,DeepElec_SSP2_ HighRE_Budg900
WITCH 5.0,EN_NPi2020_400f
WITCH 5.0,EN_NPi2020_450
WITCH 5.0,EN_NPi2020_450f
WITCH 5.0,EN_NPi2020_500
WITCH 5.0,EN_NPi2020_500f
